list2/ex4/xand.vcd
$date
  Fri Mar  2 12:48:17 2018
$end
$version
  GHDL v0
$end
$timescale
  1 fs
$end
$var reg 1 ! clk $end
$var reg 8 " a[7:0] $end
$var reg 8 # b[7:0] $end
$var reg 8 $ c[7:0] $end
$scope module uut $end
$var reg 1 % clk $end
$var reg 8 & a[7:0] $end
$var reg 8 ' b[7:0] $end
$var reg 8 ( c[7:0] $end
$upscope $end
$enddefinitions $end
#0
1!
b00000000 "
b00000000 #
b00000000 $
1%
b00000000 &
b00000000 '
b00000000 (
#100000000
#200000000
b00000001 "
b00000001 #
b00000001 $
b00000001 &
b00000001 '
b00000001 (
#210000000
b00000010 #
b00000000 $
b00000010 '
b00000000 (
#220000000
b00000011 #
b00000001 $
b00000011 '
b00000001 (
#230000000
b00000100 #
b00000000 $
b00000100 '
b00000000 (
#240000000
b00000101 #
b00000001 $
b00000101 '
b00000001 (
#250000000
b00000110 #
b00000000 $
b00000110 '
b00000000 (
#260000000
b00000111 #
b00000001 $
b00000111 '
b00000001 (
#270000000
b00001000 #
b00000000 $
b00001000 '
b00000000 (
#280000000
b00001001 #
b00000001 $
b00001001 '
b00000001 (
#290000000
b00001010 #
b00000000 $
b00001010 '
b00000000 (
#300000000
b00001011 #
b00000001 $
b00001011 '
b00000001 (
#310000000
b00001100 #
b00000000 $
b00001100 '
b00000000 (
#320000000
b00001101 #
b00000001 $
b00001101 '
b00000001 (
#330000000
b00001110 #
b00000000 $
b00001110 '
b00000000 (
#340000000
b00001111 #
b00000001 $
b00001111 '
b00000001 (
#350000000
b00010000 #
b00000000 $
b00010000 '
b00000000 (
#360000000
b00010001 #
b00000001 $
b00010001 '
b00000001 (
#370000000
b00010010 #
b00000000 $
b00010010 '
b00000000 (
#380000000
b00010011 #
b00000001 $
b00010011 '
b00000001 (
#390000000
b00010100 #
b00000000 $
b00010100 '
b00000000 (
#400000000
b00010101 #
b00000001 $
b00010101 '
b00000001 (
#410000000
b00010110 #
b00000000 $
b00010110 '
b00000000 (
#420000000
b00010111 #
b00000001 $
b00010111 '
b00000001 (
#430000000
b00011000 #
b00000000 $
b00011000 '
b00000000 (
#440000000
b00011001 #
b00000001 $
b00011001 '
b00000001 (
#450000000
b00011010 #
b00000000 $
b00011010 '
b00000000 (
#460000000
b00011011 #
b00000001 $
b00011011 '
b00000001 (
#470000000
b00011100 #
b00000000 $
b00011100 '
b00000000 (
#480000000
b00011101 #
b00000001 $
b00011101 '
b00000001 (
#490000000
b00011110 #
b00000000 $
b00011110 '
b00000000 (
#500000000
b00011111 #
b00000001 $
b00011111 '
b00000001 (
#510000000
b00100000 #
b00000000 $
b00100000 '
b00000000 (
#520000000
b00100001 #
b00000001 $
b00100001 '
b00000001 (
#530000000
b00100010 #
b00000000 $
b00100010 '
b00000000 (
#540000000
b00100011 #
b00000001 $
b00100011 '
b00000001 (
#550000000
b00100100 #
b00000000 $
b00100100 '
b00000000 (
#560000000
b00100101 #
b00000001 $
b00100101 '
b00000001 (
#570000000
b00100110 #
b00000000 $
b00100110 '
b00000000 (
#580000000
b00100111 #
b00000001 $
b00100111 '
b00000001 (
#590000000
b00101000 #
b00000000 $
b00101000 '
b00000000 (
#600000000
b00101001 #
b00000001 $
b00101001 '
b00000001 (
#610000000
b00101010 #
b00000000 $
b00101010 '
b00000000 (
#620000000
b00101011 #
b00000001 $
b00101011 '
b00000001 (
#630000000
b00101100 #
b00000000 $
b00101100 '
b00000000 (
#640000000
b00101101 #
b00000001 $
b00101101 '
b00000001 (
#650000000
b00101110 #
b00000000 $
b00101110 '
b00000000 (
#660000000
b00101111 #
b00000001 $
b00101111 '
b00000001 (
#670000000
b00110000 #
b00000000 $
b00110000 '
b00000000 (
#680000000
b00110001 #
b00000001 $
b00110001 '
b00000001 (
#690000000
b00110010 #
b00000000 $
b00110010 '
b00000000 (
#700000000
b00110011 #
b00000001 $
b00110011 '
b00000001 (
#710000000
b00110100 #
b00000000 $
b00110100 '
b00000000 (
#720000000
b00110101 #
b00000001 $
b00110101 '
b00000001 (
#730000000
b00110110 #
b00000000 $
b00110110 '
b00000000 (
#740000000
b00110111 #
b00000001 $
b00110111 '
b00000001 (
#750000000
b00111000 #
b00000000 $
b00111000 '
b00000000 (
#760000000
b00111001 #
b00000001 $
b00111001 '
b00000001 (
#770000000
b00111010 #
b00000000 $
b00111010 '
b00000000 (
#780000000
b00111011 #
b00000001 $
b00111011 '
b00000001 (
#790000000
b00111100 #
b00000000 $
b00111100 '
b00000000 (
#800000000
b00111101 #
b00000001 $
b00111101 '
b00000001 (
#810000000
b00111110 #
b00000000 $
b00111110 '
b00000000 (
#820000000
b00111111 #
b00000001 $
b00111111 '
b00000001 (
#830000000
b01000000 #
b00000000 $
b01000000 '
b00000000 (
#840000000
b01000001 #
b00000001 $
b01000001 '
b00000001 (
#850000000
b01000010 #
b00000000 $
b01000010 '
b00000000 (
#860000000
b01000011 #
b00000001 $
b01000011 '
b00000001 (
#870000000
b01000100 #
b00000000 $
b01000100 '
b00000000 (
#880000000
b01000101 #
b00000001 $
b01000101 '
b00000001 (
#890000000
b01000110 #
b00000000 $
b01000110 '
b00000000 (
#900000000
b01000111 #
b00000001 $
b01000111 '
b00000001 (
#910000000
b01001000 #
b00000000 $
b01001000 '
b00000000 (
#920000000
b01001001 #
b00000001 $
b01001001 '
b00000001 (
#930000000
b01001010 #
b00000000 $
b01001010 '
b00000000 (
#940000000
b01001011 #
b00000001 $
b01001011 '
b00000001 (
#950000000
b01001100 #
b00000000 $
b01001100 '
b00000000 (
#960000000
b01001101 #
b00000001 $
b01001101 '
b00000001 (
#970000000
b01001110 #
b00000000 $
b01001110 '
b00000000 (
#980000000
b01001111 #
b00000001 $
b01001111 '
b00000001 (
#990000000
b01010000 #
b00000000 $
b01010000 '
b00000000 (
#1000000000
b01010001 #
b00000001 $
b01010001 '
b00000001 (
#1010000000
b01010010 #
b00000000 $
b01010010 '
b00000000 (
#1020000000
b01010011 #
b00000001 $
b01010011 '
b00000001 (
#1030000000
b01010100 #
b00000000 $
b01010100 '
b00000000 (
#1040000000
b01010101 #
b00000001 $
b01010101 '
b00000001 (
#1050000000
b01010110 #
b00000000 $
b01010110 '
b00000000 (
#1060000000
b01010111 #
b00000001 $
b01010111 '
b00000001 (
#1070000000
b01011000 #
b00000000 $
b01011000 '
b00000000 (
#1080000000
b01011001 #
b00000001 $
b01011001 '
b00000001 (
#1090000000
b01011010 #
b00000000 $
b01011010 '
b00000000 (
#1100000000
b01011011 #
b00000001 $
b01011011 '
b00000001 (
#1110000000
b01011100 #
b00000000 $
b01011100 '
b00000000 (
#1120000000
b01011101 #
b00000001 $
b01011101 '
b00000001 (
#1130000000
b01011110 #
b00000000 $
b01011110 '
b00000000 (
#1140000000
b01011111 #
b00000001 $
b01011111 '
b00000001 (
#1150000000
b01100000 #
b00000000 $
b01100000 '
b00000000 (
#1160000000
b01100001 #
b00000001 $
b01100001 '
b00000001 (
#1170000000
b01100010 #
b00000000 $
b01100010 '
b00000000 (
#1180000000
b01100011 #
b00000001 $
b01100011 '
b00000001 (
#1190000000
b01100100 #
b00000000 $
b01100100 '
b00000000 (
#1200000000
b01100101 #
b00000001 $
b01100101 '
b00000001 (
#1210000000
b01100110 #
b00000000 $
b01100110 '
b00000000 (
#1220000000
b01100111 #
b00000001 $
b01100111 '
b00000001 (
#1230000000
b01101000 #
b00000000 $
b01101000 '
b00000000 (
#1240000000
b01101001 #
b00000001 $
b01101001 '
b00000001 (
#1250000000
b01101010 #
b00000000 $
b01101010 '
b00000000 (
#1260000000
b01101011 #
b00000001 $
b01101011 '
b00000001 (
#1270000000
b01101100 #
b00000000 $
b01101100 '
b00000000 (
#1280000000
b01101101 #
b00000001 $
b01101101 '
b00000001 (
#1290000000
b01101110 #
b00000000 $
b01101110 '
b00000000 (
#1300000000
b01101111 #
b00000001 $
b01101111 '
b00000001 (
#1310000000
b01110000 #
b00000000 $
b01110000 '
b00000000 (
#1320000000
b01110001 #
b00000001 $
b01110001 '
b00000001 (
#1330000000
b01110010 #
b00000000 $
b01110010 '
b00000000 (
#1340000000
b01110011 #
b00000001 $
b01110011 '
b00000001 (
#1350000000
b01110100 #
b00000000 $
b01110100 '
b00000000 (
#1360000000
b01110101 #
b00000001 $
b01110101 '
b00000001 (
#1370000000
b01110110 #
b00000000 $
b01110110 '
b00000000 (
#1380000000
b01110111 #
b00000001 $
b01110111 '
b00000001 (
#1390000000
b01111000 #
b00000000 $
b01111000 '
b00000000 (
#1400000000
b01111001 #
b00000001 $
b01111001 '
b00000001 (
#1410000000
b01111010 #
b00000000 $
b01111010 '
b00000000 (
#1420000000
b01111011 #
b00000001 $
b01111011 '
b00000001 (
#1430000000
b01111100 #
b00000000 $
b01111100 '
b00000000 (
#1440000000
b01111101 #
b00000001 $
b01111101 '
b00000001 (
#1450000000
b01111110 #
b00000000 $
b01111110 '
b00000000 (
#1460000000
b01111111 #
b00000001 $
b01111111 '
b00000001 (
#1470000000
b10000000 #
b00000000 $
b10000000 '
b00000000 (
#1480000000
b10000001 #
b00000001 $
b10000001 '
b00000001 (
#1490000000
b10000010 #
b00000000 $
b10000010 '
b00000000 (
#1500000000
b10000011 #
b00000001 $
b10000011 '
b00000001 (
#1510000000
b10000100 #
b00000000 $
b10000100 '
b00000000 (
#1520000000
b10000101 #
b00000001 $
b10000101 '
b00000001 (
#1530000000
b10000110 #
b00000000 $
b10000110 '
b00000000 (
#1540000000
b10000111 #
b00000001 $
b10000111 '
b00000001 (
#1550000000
b10001000 #
b00000000 $
b10001000 '
b00000000 (
#1560000000
b10001001 #
b00000001 $
b10001001 '
b00000001 (
#1570000000
b10001010 #
b00000000 $
b10001010 '
b00000000 (
#1580000000
b10001011 #
b00000001 $
b10001011 '
b00000001 (
#1590000000
b10001100 #
b00000000 $
b10001100 '
b00000000 (
#1600000000
b10001101 #
b00000001 $
b10001101 '
b00000001 (
#1610000000
b10001110 #
b00000000 $
b10001110 '
b00000000 (
#1620000000
b10001111 #
b00000001 $
b10001111 '
b00000001 (
#1630000000
b10010000 #
b00000000 $
b10010000 '
b00000000 (
#1640000000
b10010001 #
b00000001 $
b10010001 '
b00000001 (
#1650000000
b10010010 #
b00000000 $
b10010010 '
b00000000 (
#1660000000
b10010011 #
b00000001 $
b10010011 '
b00000001 (
#1670000000
b10010100 #
b00000000 $
b10010100 '
b00000000 (
#1680000000
b10010101 #
b00000001 $
b10010101 '
b00000001 (
#1690000000
b10010110 #
b00000000 $
b10010110 '
b00000000 (
#1700000000
b10010111 #
b00000001 $
b10010111 '
b00000001 (
#1710000000
b10011000 #
b00000000 $
b10011000 '
b00000000 (
#1720000000
b10011001 #
b00000001 $
b10011001 '
b00000001 (
#1730000000
b10011010 #
b00000000 $
b10011010 '
b00000000 (
#1740000000
b10011011 #
b00000001 $
b10011011 '
b00000001 (
#1750000000
b10011100 #
b00000000 $
b10011100 '
b00000000 (
#1760000000
b10011101 #
b00000001 $
b10011101 '
b00000001 (
#1770000000
b10011110 #
b00000000 $
b10011110 '
b00000000 (
#1780000000
b10011111 #
b00000001 $
b10011111 '
b00000001 (
#1790000000
b10100000 #
b00000000 $
b10100000 '
b00000000 (
#1800000000
b10100001 #
b00000001 $
b10100001 '
b00000001 (
#1810000000
b10100010 #
b00000000 $
b10100010 '
b00000000 (
#1820000000
b10100011 #
b00000001 $
b10100011 '
b00000001 (
#1830000000
b10100100 #
b00000000 $
b10100100 '
b00000000 (
#1840000000
b10100101 #
b00000001 $
b10100101 '
b00000001 (
#1850000000
b10100110 #
b00000000 $
b10100110 '
b00000000 (
#1860000000
b10100111 #
b00000001 $
b10100111 '
b00000001 (
#1870000000
b10101000 #
b00000000 $
b10101000 '
b00000000 (
#1880000000
b10101001 #
b00000001 $
b10101001 '
b00000001 (
#1890000000
b10101010 #
b00000000 $
b10101010 '
b00000000 (
#1900000000
b10101011 #
b00000001 $
b10101011 '
b00000001 (
#1910000000
b10101100 #
b00000000 $
b10101100 '
b00000000 (
#1920000000
b10101101 #
b00000001 $
b10101101 '
b00000001 (
#1930000000
b10101110 #
b00000000 $
b10101110 '
b00000000 (
#1940000000
b10101111 #
b00000001 $
b10101111 '
b00000001 (
#1950000000
b10110000 #
b00000000 $
b10110000 '
b00000000 (
#1960000000
b10110001 #
b00000001 $
b10110001 '
b00000001 (
#1970000000
b10110010 #
b00000000 $
b10110010 '
b00000000 (
#1980000000
b10110011 #
b00000001 $
b10110011 '
b00000001 (
#1990000000
b10110100 #
b00000000 $
b10110100 '
b00000000 (
#2000000000
b10110101 #
b00000001 $
b10110101 '
b00000001 (
#2010000000
b10110110 #
b00000000 $
b10110110 '
b00000000 (
#2020000000
b10110111 #
b00000001 $
b10110111 '
b00000001 (
#2030000000
b10111000 #
b00000000 $
b10111000 '
b00000000 (
#2040000000
b10111001 #
b00000001 $
b10111001 '
b00000001 (
#2050000000
b10111010 #
b00000000 $
b10111010 '
b00000000 (
#2060000000
b10111011 #
b00000001 $
b10111011 '
b00000001 (
#2070000000
b10111100 #
b00000000 $
b10111100 '
b00000000 (
#2080000000
b10111101 #
b00000001 $
b10111101 '
b00000001 (
#2090000000
b10111110 #
b00000000 $
b10111110 '
b00000000 (
#2100000000
b10111111 #
b00000001 $
b10111111 '
b00000001 (
#2110000000
b11000000 #
b00000000 $
b11000000 '
b00000000 (
#2120000000
b11000001 #
b00000001 $
b11000001 '
b00000001 (
#2130000000
b11000010 #
b00000000 $
b11000010 '
b00000000 (
#2140000000
b11000011 #
b00000001 $
b11000011 '
b00000001 (
#2150000000
b11000100 #
b00000000 $
b11000100 '
b00000000 (
#2160000000
b11000101 #
b00000001 $
b11000101 '
b00000001 (
#2170000000
b11000110 #
b00000000 $
b11000110 '
b00000000 (
#2180000000
b11000111 #
b00000001 $
b11000111 '
b00000001 (
#2190000000
b11001000 #
b00000000 $
b11001000 '
b00000000 (
#2200000000
b11001001 #
b00000001 $
b11001001 '
b00000001 (
#2210000000
b11001010 #
b00000000 $
b11001010 '
b00000000 (
#2220000000
b11001011 #
b00000001 $
b11001011 '
b00000001 (
#2230000000
b11001100 #
b00000000 $
b11001100 '
b00000000 (
#2240000000
b11001101 #
b00000001 $
b11001101 '
b00000001 (
#2250000000
b11001110 #
b00000000 $
b11001110 '
b00000000 (
#2260000000
b11001111 #
b00000001 $
b11001111 '
b00000001 (
#2270000000
b11010000 #
b00000000 $
b11010000 '
b00000000 (
#2280000000
b11010001 #
b00000001 $
b11010001 '
b00000001 (
#2290000000
b11010010 #
b00000000 $
b11010010 '
b00000000 (
#2300000000
b11010011 #
b00000001 $
b11010011 '
b00000001 (
#2310000000
b11010100 #
b00000000 $
b11010100 '
b00000000 (
#2320000000
b11010101 #
b00000001 $
b11010101 '
b00000001 (
#2330000000
b11010110 #
b00000000 $
b11010110 '
b00000000 (
#2340000000
b11010111 #
b00000001 $
b11010111 '
b00000001 (
#2350000000
b11011000 #
b00000000 $
b11011000 '
b00000000 (
#2360000000
b11011001 #
b00000001 $
b11011001 '
b00000001 (
#2370000000
b11011010 #
b00000000 $
b11011010 '
b00000000 (
#2380000000
b11011011 #
b00000001 $
b11011011 '
b00000001 (
#2390000000
b11011100 #
b00000000 $
b11011100 '
b00000000 (
#2400000000
b11011101 #
b00000001 $
b11011101 '
b00000001 (
#2410000000
b11011110 #
b00000000 $
b11011110 '
b00000000 (
#2420000000
b11011111 #
b00000001 $
b11011111 '
b00000001 (
#2430000000
b11100000 #
b00000000 $
b11100000 '
b00000000 (
#2440000000
b11100001 #
b00000001 $
b11100001 '
b00000001 (
#2450000000
b11100010 #
b00000000 $
b11100010 '
b00000000 (
#2460000000
b11100011 #
b00000001 $
b11100011 '
b00000001 (
#2470000000
b11100100 #
b00000000 $
b11100100 '
b00000000 (
#2480000000
b11100101 #
b00000001 $
b11100101 '
b00000001 (
#2490000000
b11100110 #
b00000000 $
b11100110 '
b00000000 (
#2500000000
b11100111 #
b00000001 $
b11100111 '
b00000001 (
#2510000000
b11101000 #
b00000000 $
b11101000 '
b00000000 (
#2520000000
b11101001 #
b00000001 $
b11101001 '
b00000001 (
#2530000000
b11101010 #
b00000000 $
b11101010 '
b00000000 (
#2540000000
b11101011 #
b00000001 $
b11101011 '
b00000001 (
#2550000000
b11101100 #
b00000000 $
b11101100 '
b00000000 (
#2560000000
b11101101 #
b00000001 $
b11101101 '
b00000001 (
#2570000000
b11101110 #
b00000000 $
b11101110 '
b00000000 (
#2580000000
b11101111 #
b00000001 $
b11101111 '
b00000001 (
#2590000000
b11110000 #
b00000000 $
b11110000 '
b00000000 (
#2600000000
b11110001 #
b00000001 $
b11110001 '
b00000001 (
#2610000000
b11110010 #
b00000000 $
b11110010 '
b00000000 (
#2620000000
b11110011 #
b00000001 $
b11110011 '
b00000001 (
#2630000000
b11110100 #
b00000000 $
b11110100 '
b00000000 (
#2640000000
b11110101 #
b00000001 $
b11110101 '
b00000001 (
#2650000000
b11110110 #
b00000000 $
b11110110 '
b00000000 (
#2660000000
b11110111 #
b00000001 $
b11110111 '
b00000001 (
#2670000000
b11111000 #
b00000000 $
b11111000 '
b00000000 (
#2680000000
b11111001 #
b00000001 $
b11111001 '
b00000001 (
#2690000000
b11111010 #
b00000000 $
b11111010 '
b00000000 (
#2700000000
b11111011 #
b00000001 $
b11111011 '
b00000001 (
#2710000000
b11111100 #
b00000000 $
b11111100 '
b00000000 (
#2720000000
b11111101 #
b00000001 $
b11111101 '
b00000001 (
#2730000000
b11111110 #
b00000000 $
b11111110 '
b00000000 (
#2740000000
b11111111 #
b00000001 $
b11111111 '
b00000001 (
#2750000000
b00000000 #
b00000000 $
b00000000 '
b00000000 (
#2760000000
b00000001 #
b00000001 $
b00000001 '
b00000001 (
#2770000000
b00000010 "
b00000010 #
b00000010 $
b00000010 &
b00000010 '
b00000010 (
#2780000000
b00000011 #
b00000011 '
#2790000000
b00000100 #
b00000000 $
b00000100 '
b00000000 (
#2800000000
b00000101 #
b00000101 '
#2810000000
b00000110 #
b00000010 $
b00000110 '
b00000010 (
#2820000000
b00000111 #
b00000111 '
#2830000000
b00001000 #
b00000000 $
b00001000 '
b00000000 (
#2840000000
b00001001 #
b00001001 '
#2850000000
b00001010 #
b00000010 $
b00001010 '
b00000010 (
#2860000000
b00001011 #
b00001011 '
#2870000000
b00001100 #
b00000000 $
b00001100 '
b00000000 (
#2880000000
b00001101 #
b00001101 '
#2890000000
b00001110 #
b00000010 $
b00001110 '
b00000010 (
#2900000000
b00001111 #
b00001111 '
#2910000000
b00010000 #
b00000000 $
b00010000 '
b00000000 (
#2920000000
b00010001 #
b00010001 '
#2930000000
b00010010 #
b00000010 $
b00010010 '
b00000010 (
#2940000000
b00010011 #
b00010011 '
#2950000000
b00010100 #
b00000000 $
b00010100 '
b00000000 (
#2960000000
b00010101 #
b00010101 '
#2970000000
b00010110 #
b00000010 $
b00010110 '
b00000010 (
#2980000000
b00010111 #
b00010111 '
#2990000000
b00011000 #
b00000000 $
b00011000 '
b00000000 (
#3000000000
b00011001 #
b00011001 '
#3010000000
b00011010 #
b00000010 $
b00011010 '
b00000010 (
#3020000000
b00011011 #
b00011011 '
#3030000000
b00011100 #
b00000000 $
b00011100 '
b00000000 (
#3040000000
b00011101 #
b00011101 '
#3050000000
b00011110 #
b00000010 $
b00011110 '
b00000010 (
#3060000000
b00011111 #
b00011111 '
#3070000000
b00100000 #
b00000000 $
b00100000 '
b00000000 (
#3080000000
b00100001 #
b00100001 '
#3090000000
b00100010 #
b00000010 $
b00100010 '
b00000010 (
#3100000000
b00100011 #
b00100011 '
#3110000000
b00100100 #
b00000000 $
b00100100 '
b00000000 (
#3120000000
b00100101 #
b00100101 '
#3130000000
b00100110 #
b00000010 $
b00100110 '
b00000010 (
#3140000000
b00100111 #
b00100111 '
#3150000000
b00101000 #
b00000000 $
b00101000 '
b00000000 (
#3160000000
b00101001 #
b00101001 '
#3170000000
b00101010 #
b00000010 $
b00101010 '
b00000010 (
#3180000000
b00101011 #
b00101011 '
#3190000000
b00101100 #
b00000000 $
b00101100 '
b00000000 (
#3200000000
b00101101 #
b00101101 '
#3210000000
b00101110 #
b00000010 $
b00101110 '
b00000010 (
#3220000000
b00101111 #
b00101111 '
#3230000000
b00110000 #
b00000000 $
b00110000 '
b00000000 (
#3240000000
b00110001 #
b00110001 '
#3250000000
b00110010 #
b00000010 $
b00110010 '
b00000010 (
#3260000000
b00110011 #
b00110011 '
#3270000000
b00110100 #
b00000000 $
b00110100 '
b00000000 (
#3280000000
b00110101 #
b00110101 '
#3290000000
b00110110 #
b00000010 $
b00110110 '
b00000010 (
#3300000000
b00110111 #
b00110111 '
#3310000000
b00111000 #
b00000000 $
b00111000 '
b00000000 (
#3320000000
b00111001 #
b00111001 '
#3330000000
b00111010 #
b00000010 $
b00111010 '
b00000010 (
#3340000000
b00111011 #
b00111011 '
#3350000000
b00111100 #
b00000000 $
b00111100 '
b00000000 (
#3360000000
b00111101 #
b00111101 '
#3370000000
b00111110 #
b00000010 $
b00111110 '
b00000010 (
#3380000000
b00111111 #
b00111111 '
#3390000000
b01000000 #
b00000000 $
b01000000 '
b00000000 (
#3400000000
b01000001 #
b01000001 '
#3410000000
b01000010 #
b00000010 $
b01000010 '
b00000010 (
#3420000000
b01000011 #
b01000011 '
#3430000000
b01000100 #
b00000000 $
b01000100 '
b00000000 (
#3440000000
b01000101 #
b01000101 '
#3450000000
b01000110 #
b00000010 $
b01000110 '
b00000010 (
#3460000000
b01000111 #
b01000111 '
#3470000000
b01001000 #
b00000000 $
b01001000 '
b00000000 (
#3480000000
b01001001 #
b01001001 '
#3490000000
b01001010 #
b00000010 $
b01001010 '
b00000010 (
#3500000000
b01001011 #
b01001011 '
#3510000000
b01001100 #
b00000000 $
b01001100 '
b00000000 (
#3520000000
b01001101 #
b01001101 '
#3530000000
b01001110 #
b00000010 $
b01001110 '
b00000010 (
#3540000000
b01001111 #
b01001111 '
#3550000000
b01010000 #
b00000000 $
b01010000 '
b00000000 (
#3560000000
b01010001 #
b01010001 '
#3570000000
b01010010 #
b00000010 $
b01010010 '
b00000010 (
#3580000000
b01010011 #
b01010011 '
#3590000000
b01010100 #
b00000000 $
b01010100 '
b00000000 (
#3600000000
b01010101 #
b01010101 '
#3610000000
b01010110 #
b00000010 $
b01010110 '
b00000010 (
#3620000000
b01010111 #
b01010111 '
#3630000000
b01011000 #
b00000000 $
b01011000 '
b00000000 (
#3640000000
b01011001 #
b01011001 '
#3650000000
b01011010 #
b00000010 $
b01011010 '
b00000010 (
#3660000000
b01011011 #
b01011011 '
#3670000000
b01011100 #
b00000000 $
b01011100 '
b00000000 (
#3680000000
b01011101 #
b01011101 '
#3690000000
b01011110 #
b00000010 $
b01011110 '
b00000010 (
#3700000000
b01011111 #
b01011111 '
#3710000000
b01100000 #
b00000000 $
b01100000 '
b00000000 (
#3720000000
b01100001 #
b01100001 '
#3730000000
b01100010 #
b00000010 $
b01100010 '
b00000010 (
#3740000000
b01100011 #
b01100011 '
#3750000000
b01100100 #
b00000000 $
b01100100 '
b00000000 (
#3760000000
b01100101 #
b01100101 '
#3770000000
b01100110 #
b00000010 $
b01100110 '
b00000010 (
#3780000000
b01100111 #
b01100111 '
#3790000000
b01101000 #
b00000000 $
b01101000 '
b00000000 (
#3800000000
b01101001 #
b01101001 '
#3810000000
b01101010 #
b00000010 $
b01101010 '
b00000010 (
#3820000000
b01101011 #
b01101011 '
#3830000000
b01101100 #
b00000000 $
b01101100 '
b00000000 (
#3840000000
b01101101 #
b01101101 '
#3850000000
b01101110 #
b00000010 $
b01101110 '
b00000010 (
#3860000000
b01101111 #
b01101111 '
#3870000000
b01110000 #
b00000000 $
b01110000 '
b00000000 (
#3880000000
b01110001 #
b01110001 '
#3890000000
b01110010 #
b00000010 $
b01110010 '
b00000010 (
#3900000000
b01110011 #
b01110011 '
#3910000000
b01110100 #
b00000000 $
b01110100 '
b00000000 (
#3920000000
b01110101 #
b01110101 '
#3930000000
b01110110 #
b00000010 $
b01110110 '
b00000010 (
#3940000000
b01110111 #
b01110111 '
#3950000000
b01111000 #
b00000000 $
b01111000 '
b00000000 (
#3960000000
b01111001 #
b01111001 '
#3970000000
b01111010 #
b00000010 $
b01111010 '
b00000010 (
#3980000000
b01111011 #
b01111011 '
#3990000000
b01111100 #
b00000000 $
b01111100 '
b00000000 (
#4000000000
b01111101 #
b01111101 '
#4010000000
b01111110 #
b00000010 $
b01111110 '
b00000010 (
#4020000000
b01111111 #
b01111111 '
#4030000000
b10000000 #
b00000000 $
b10000000 '
b00000000 (
#4040000000
b10000001 #
b10000001 '
#4050000000
b10000010 #
b00000010 $
b10000010 '
b00000010 (
#4060000000
b10000011 #
b10000011 '
#4070000000
b10000100 #
b00000000 $
b10000100 '
b00000000 (
#4080000000
b10000101 #
b10000101 '
#4090000000
b10000110 #
b00000010 $
b10000110 '
b00000010 (
#4100000000
b10000111 #
b10000111 '
#4110000000
b10001000 #
b00000000 $
b10001000 '
b00000000 (
#4120000000
b10001001 #
b10001001 '
#4130000000
b10001010 #
b00000010 $
b10001010 '
b00000010 (
#4140000000
b10001011 #
b10001011 '
#4150000000
b10001100 #
b00000000 $
b10001100 '
b00000000 (
#4160000000
b10001101 #
b10001101 '
#4170000000
b10001110 #
b00000010 $
b10001110 '
b00000010 (
#4180000000
b10001111 #
b10001111 '
#4190000000
b10010000 #
b00000000 $
b10010000 '
b00000000 (
#4200000000
b10010001 #
b10010001 '
#4210000000
b10010010 #
b00000010 $
b10010010 '
b00000010 (
#4220000000
b10010011 #
b10010011 '
#4230000000
b10010100 #
b00000000 $
b10010100 '
b00000000 (
#4240000000
b10010101 #
b10010101 '
#4250000000
b10010110 #
b00000010 $
b10010110 '
b00000010 (
#4260000000
b10010111 #
b10010111 '
#4270000000
b10011000 #
b00000000 $
b10011000 '
b00000000 (
#4280000000
b10011001 #
b10011001 '
#4290000000
b10011010 #
b00000010 $
b10011010 '
b00000010 (
#4300000000
b10011011 #
b10011011 '
#4310000000
b10011100 #
b00000000 $
b10011100 '
b00000000 (
#4320000000
b10011101 #
b10011101 '
#4330000000
b10011110 #
b00000010 $
b10011110 '
b00000010 (
#4340000000
b10011111 #
b10011111 '
#4350000000
b10100000 #
b00000000 $
b10100000 '
b00000000 (
#4360000000
b10100001 #
b10100001 '
#4370000000
b10100010 #
b00000010 $
b10100010 '
b00000010 (
#4380000000
b10100011 #
b10100011 '
#4390000000
b10100100 #
b00000000 $
b10100100 '
b00000000 (
#4400000000
b10100101 #
b10100101 '
#4410000000
b10100110 #
b00000010 $
b10100110 '
b00000010 (
#4420000000
b10100111 #
b10100111 '
#4430000000
b10101000 #
b00000000 $
b10101000 '
b00000000 (
#4440000000
b10101001 #
b10101001 '
#4450000000
b10101010 #
b00000010 $
b10101010 '
b00000010 (
#4460000000
b10101011 #
b10101011 '
#4470000000
b10101100 #
b00000000 $
b10101100 '
b00000000 (
#4480000000
b10101101 #
b10101101 '
#4490000000
b10101110 #
b00000010 $
b10101110 '
b00000010 (
#4500000000
b10101111 #
b10101111 '
#4510000000
b10110000 #
b00000000 $
b10110000 '
b00000000 (
#4520000000
b10110001 #
b10110001 '
#4530000000
b10110010 #
b00000010 $
b10110010 '
b00000010 (
#4540000000
b10110011 #
b10110011 '
#4550000000
b10110100 #
b00000000 $
b10110100 '
b00000000 (
#4560000000
b10110101 #
b10110101 '
#4570000000
b10110110 #
b00000010 $
b10110110 '
b00000010 (
#4580000000
b10110111 #
b10110111 '
#4590000000
b10111000 #
b00000000 $
b10111000 '
b00000000 (
#4600000000
b10111001 #
b10111001 '
#4610000000
b10111010 #
b00000010 $
b10111010 '
b00000010 (
#4620000000
b10111011 #
b10111011 '
#4630000000
b10111100 #
b00000000 $
b10111100 '
b00000000 (
#4640000000
b10111101 #
b10111101 '
#4650000000
b10111110 #
b00000010 $
b10111110 '
b00000010 (
#4660000000
b10111111 #
b10111111 '
#4670000000
b11000000 #
b00000000 $
b11000000 '
b00000000 (
#4680000000
b11000001 #
b11000001 '
#4690000000
b11000010 #
b00000010 $
b11000010 '
b00000010 (
#4700000000
b11000011 #
b11000011 '
#4710000000
b11000100 #
b00000000 $
b11000100 '
b00000000 (
#4720000000
b11000101 #
b11000101 '
#4730000000
b11000110 #
b00000010 $
b11000110 '
b00000010 (
#4740000000
b11000111 #
b11000111 '
#4750000000
b11001000 #
b00000000 $
b11001000 '
b00000000 (
#4760000000
b11001001 #
b11001001 '
#4770000000
b11001010 #
b00000010 $
b11001010 '
b00000010 (
#4780000000
b11001011 #
b11001011 '
#4790000000
b11001100 #
b00000000 $
b11001100 '
b00000000 (
#4800000000
b11001101 #
b11001101 '
#4810000000
b11001110 #
b00000010 $
b11001110 '
b00000010 (
#4820000000
b11001111 #
b11001111 '
#4830000000
b11010000 #
b00000000 $
b11010000 '
b00000000 (
#4840000000
b11010001 #
b11010001 '
#4850000000
b11010010 #
b00000010 $
b11010010 '
b00000010 (
#4860000000
b11010011 #
b11010011 '
#4870000000
b11010100 #
b00000000 $
b11010100 '
b00000000 (
#4880000000
b11010101 #
b11010101 '
#4890000000
b11010110 #
b00000010 $
b11010110 '
b00000010 (
#4900000000
b11010111 #
b11010111 '
#4910000000
b11011000 #
b00000000 $
b11011000 '
b00000000 (
#4920000000
b11011001 #
b11011001 '
#4930000000
b11011010 #
b00000010 $
b11011010 '
b00000010 (
#4940000000
b11011011 #
b11011011 '
#4950000000
b11011100 #
b00000000 $
b11011100 '
b00000000 (
#4960000000
b11011101 #
b11011101 '
#4970000000
b11011110 #
b00000010 $
b11011110 '
b00000010 (
#4980000000
b11011111 #
b11011111 '
#4990000000
b11100000 #
b00000000 $
b11100000 '
b00000000 (
