list2/ex5/comparator.vcd
$date
  Mon Mar  5 09:42:46 2018
$end
$version
  GHDL v0
$end
$timescale
  1 fs
$end
$var reg 3 ! a[2:0] $end
$var reg 3 " b[2:0] $end
$var reg 1 # less $end
$var reg 1 $ equal $end
$var reg 1 % greater $end
$scope module uut $end
$var reg 3 & a[2:0] $end
$var reg 3 ' b[2:0] $end
$var reg 1 ( less $end
$var reg 1 ) equal $end
$var reg 1 * greater $end
$upscope $end
$enddefinitions $end
#0
b000 !
b000 "
0#
1$
0%
b000 &
b000 '
0(
1)
0*
#3000000
#5000000
b001 "
1#
0$
b001 '
1(
0)
#7000000
b010 "
b010 '
1(
#9000000
b011 "
b011 '
1(
#11000000
b100 "
b100 '
1(
#13000000
b101 "
b101 '
1(
#15000000
b110 "
b110 '
1(
#17000000
b111 "
b111 '
1(
#19000000
b001 !
b000 "
0#
1%
b001 &
b000 '
0(
1*
#21000000
b001 "
1$
0%
b001 '
1)
0*
#23000000
b010 "
1#
0$
b010 '
1(
0)
#25000000
b011 "
b011 '
1(
#27000000
b100 "
b100 '
1(
#29000000
b101 "
b101 '
1(
#31000000
b110 "
b110 '
1(
#33000000
b111 "
b111 '
1(
#35000000
b010 !
b000 "
0#
1%
b010 &
b000 '
0(
1*
#37000000
b001 "
b001 '
1*
#39000000
b010 "
1$
0%
b010 '
1)
0*
#41000000
b011 "
1#
0$
b011 '
1(
0)
#43000000
b100 "
b100 '
1(
#45000000
b101 "
b101 '
1(
#47000000
b110 "
b110 '
1(
#49000000
b111 "
b111 '
1(
#51000000
b011 !
b000 "
0#
1%
b011 &
b000 '
0(
1*
#53000000
b001 "
b001 '
1*
#55000000
b010 "
b010 '
1*
#57000000
b011 "
1$
0%
b011 '
1)
0*
#59000000
b100 "
1#
0$
b100 '
1(
0)
#61000000
b101 "
b101 '
1(
#63000000
b110 "
b110 '
1(
#65000000
b111 "
b111 '
1(
#67000000
b100 !
b000 "
0#
1%
b100 &
b000 '
0(
1*
#69000000
b001 "
b001 '
1*
#71000000
b010 "
b010 '
1*
#73000000
b011 "
b011 '
1*
#75000000
b100 "
1$
0%
b100 '
1)
0*
#77000000
b101 "
1#
0$
b101 '
1(
0)
#79000000
b110 "
b110 '
1(
#81000000
b111 "
b111 '
1(
#83000000
b101 !
b000 "
0#
1%
b101 &
b000 '
0(
1*
#85000000
b001 "
b001 '
1*
#87000000
b010 "
b010 '
1*
#89000000
b011 "
b011 '
1*
#91000000
b100 "
b100 '
1*
#93000000
b101 "
1$
0%
b101 '
1)
0*
#95000000
b110 "
1#
0$
b110 '
1(
0)
#97000000
b111 "
b111 '
1(
#99000000
b110 !
b000 "
0#
1%
b110 &
b000 '
0(
1*
#101000000
b001 "
b001 '
1*
#103000000
b010 "
b010 '
1*
#105000000
b011 "
b011 '
1*
#107000000
b100 "
b100 '
1*
#109000000
b101 "
b101 '
1*
#111000000
b110 "
1$
0%
b110 '
1)
0*
#113000000
b111 "
1#
0$
b111 '
1(
0)
#115000000
b111 !
b000 "
0#
1%
b111 &
b000 '
0(
1*
#117000000
b001 "
b001 '
1*
#119000000
b010 "
b010 '
1*
#121000000
b011 "
b011 '
1*
#123000000
b100 "
b100 '
1*
#125000000
b101 "
b101 '
1*
#127000000
b110 "
b110 '
1*
#129000000
b111 "
1$
0%
b111 '
1)
0*
#131000000
b000 !
b000 "
b000 &
b000 '
1)
