list1/ex4/calc.vcd
$date
  Fri Feb 23 12:33:15 2018
$end
$version
  GHDL v0
$end
$timescale
  1 fs
$end
$var reg 1 ! a $end
$var reg 1 " b $end
$var reg 1 # c $end
$var reg 1 $ x $end
$var reg 1 % y $end
$scope module calc_0 $end
$var reg 1 & a $end
$var reg 1 ' b $end
$var reg 1 ( c $end
$var reg 1 ) x $end
$var reg 1 * y $end
$var reg 1 + u1 $end
$var reg 1 , u2 $end
$var reg 1 - u3 $end
$upscope $end
$enddefinitions $end
#0
0!
0"
0#
0$
0%
0&
0'
0(
0)
0*
0+
1,
0-
#1000000
1#
1(
0,
1-
#2000000
1"
0#
1%
1'
0(
1*
1+
0-
#3000000
1#
0%
1(
0*
1-
#4000000
1!
0"
0#
1$
1&
0'
0(
1)
1,
#5000000
1#
0$
1%
1(
0)
1*
0,
0-
#6000000
1"
0#
0%
1'
0(
0*
1-
#7000000
1#
1%
1(
1*
0-
